…
The startup phenomenon is fairly recent, but has really taken off. (Pun intended.)

Whether it is worth exploring startups further depends on where they are:

launches %>% 
  mutate(state_code = ifelse(state_code == "SU", "RU", state_code),
         state_code = ifelse(state_code %in% c("I-ESA", "I-ELDO"), "EU", state_code)) %>% 
  filter(agency_type == "startup") 

## # A tibble: 70 x 11
##    tag       JD launch_date launch_year type  variant mission agency
##    <chr>  <dbl> <date>            <dbl> <chr> <chr>   <chr>   <chr> 
##  1 2018~ 2.46e6 2018-01-21         2018 Elec~ <NA>    Dove/L~ RLABU 
##  2 2017~ 2.46e6 2017-05-25         2017 Elec~ <NA>    <NA>    RLABU 
##  3 2008~ 2.45e6 2008-09-28         2008 Falc~ <NA>    Mass s~ SPX   
##  4 2009~ 2.46e6 2009-07-14         2009 Falc~ <NA>    MACSat  SPX   
##  5 2010~ 2.46e6 2010-06-04         2010 Falc~ <NA>    Dragon~ SPX   
##  6 2010~ 2.46e6 2010-12-08         2010 Falc~ <NA>    Dragon~ SPX   
##  7 2012~ 2.46e6 2012-05-22         2012 Falc~ <NA>    Dragon~ SPX   
##  8 2012~ 2.46e6 2012-10-08         2012 Falc~ <NA>    Dragon~ SPX   
##  9 2013~ 2.46e6 2013-03-01         2013 Falc~ <NA>    Dragon~ SPX   
## 10 2013~ 2.46e6 2013-09-29         2013 Falc~ 1.1     Cassio~ SPX   
## # ... with 60 more rows, and 3 more variables: state_code <chr>,
## #   category <chr>, agency_type <chr>
…
