…
Shows that have low ratings might get canceled. I explore this hypothesis below. What is the average of average rating by number of seasons?

ratings %>% 
  filter(last_season < 2018) %>% 
  group_by(title) %>% 
  summarize(av_rating = mean(av_rating), n_seasons = n_seasons[1]) %>% 
  ungroup() ->
  season_rating

season_rating %>% 
  arrange(desc(av_rating))

## # A tibble: 694 x 3
##    title                    av_rating n_seasons
##    <chr>                        <dbl>     <dbl>
##  1 Touched by an Angel           9.6          5
##  2 Santa Barbara                 9.4          1
##  3 L.A. Law                      9.35         5
##  4 Game of Thrones               9.27         7
##  5 The Fugitive Chronicles       9.2          1
##  6 Person of Interest            9.12         5
##  7 The Leftovers                 9.06         3
##  8 Wentworth                     9.05         5
##  9 TURN: Washington's Spies      9.02         4
## 10 Outlander                     9.02         3
## # ... with 684 more rows
…
ratings %>% 
  filter(n_seasons > 2 | (last_season < 2018 & n_seasons > 5)) %>% 
  group_by(title, n_seasons) %>% 
  nest() %>% 
  mutate(rating_lm = map(data, ~ lm(av_rating ~ seasonNumber, data = .x))) %>% 
  mutate(slope = map_dbl(rating_lm, ~ coef(.x)[2])) %>% 
  select(title, n_seasons, slope) %>% 
  ungroup() %>% 
  na.omit() ->
  seasons_slope

seasons_slope %>% 
  arrange(desc(n_seasons))

## # A tibble: 302 x 3
##    title                             n_seasons    slope
##    <chr>                                 <dbl>    <dbl>
##  1 Polizeiruf 110                           44 -0.0474 
##  2 Masterpiece Classic                      37 -0.114  
##  3 Law & Order                              20 -0.00102
##  4 Law & Order: Special Victims Unit        20 -0.0413 
##  5 Midsomer Murders                         19 -0.0247 
##  6 CSI: Crime Scene Investigation           15 -0.0657 
##  7 ER                                       15 -0.00633
##  8 Grey's Anatomy                           15 -0.0391 
##  9 Criminal Minds                           14  0.0431 
## 10 Columbo                                  13 -0.0444 
## # ... with 292 more rows

seasons_slope %>% 
  arrange(desc(slope))

## # A tibble: 302 x 3
##    title                       n_seasons slope
##    <chr>                           <dbl> <dbl>
##  1 Third Watch                         6 0.97 
##  2 Zoey 101                            4 0.850
##  3 Greek                               4 0.636
##  4 The Expanse                         3 0.464
##  5 8 Simple Rules                      3 0.452
##  6 Friday Night Lights                 5 0.450
##  7 BoJack Horseman                     5 0.397
##  8 The Walking Dead: Webisodes         3 0.345
##  9 Kingdom                             3 0.341
## 10 Defiance                            3 0.335
## # ... with 292 more rows
…
