…
Highest HPI by year and month

This is to confirm the state with the maximum for each time point. Keep in mind this is not raw housing prices (where we would need a cost of living index), but rather growth in prices relative to a given point in time (doesn’t matter when, I just use the Dec 2000 date here). In the late nineties HI had a bubble in housing, which settled back down. Since 2000, DC has experienced huge increase in housing pricing relative to the rest the country.

state_hpi %>% 
  group_by(year,month) %>% 
  top_n(1, price_index) %>% 
  ungroup() %>% 
  arrange(year, month)

## # A tibble: 577 x 8
##     year month state price_index us_avg date       price_reindex us_reavg
##    <dbl> <dbl> <chr>       <dbl>  <dbl> <date>             <dbl>    <dbl>
##  1  1975     1 MS           42.7   23.5 1975-01-01         100       100 
##  2  1975     2 MS           42.3   23.6 1975-02-01          98.9     101.
##  3  1975     3 WV           42.7   23.8 1975-03-01         105.      102.
##  4  1975     4 WV           43.7   24.1 1975-04-01         107.      103.
##  5  1975     5 WV           44.8   24.2 1975-05-01         110.      103.
##  6  1975     6 WV           45.8   24.2 1975-06-01         113.      103.
##  7  1975     7 WV           46.8   24.3 1975-07-01         115.      103.
##  8  1975     8 WV           47.7   24.4 1975-08-01         117.      104.
##  9  1975     9 WV           48.3   24.5 1975-09-01         119.      104.
## 10  1975    10 WV           48.6   24.6 1975-10-01         120.      105.
## # ... with 567 more rows
…
